[
  {
    "id": "A5E-ym6WyGM",
    "created_at": "2018-08-15T13:18:24-04:00",
    "updated_at": "2021-07-26T16:35:19-04:00",
    "promoted_at": "2021-06-19T04:18:01-04:00",
    "width": 3840,
    "height": 5760,
    "color": "#d9d9d9",
    "blur_hash": "LYLqIXD%MxWB~qRPayjtIUt8xubH",
    "description": null,
    "alt_description": "gray and black laptop computer on brown wooden table",
    "urls": {
      "raw": "https://images.unsplash.com/photo-1534353436294-0dbd4bdac845?ixid=Mnw1MDM2MHwxfDF8YWxsfDF8fHx8fHwyfHwxNjI3NDAyMjMz&ixlib=rb-1.2.1",
      "full": "https://images.unsplash.com/photo-1534353436294-0dbd4bdac845?crop=entropy&cs=srgb&fm=jpg&ixid=Mnw1MDM2MHwxfDF8YWxsfDF8fHx8fHwyfHwxNjI3NDAyMjMz&ixlib=rb-1.2.1&q=85",
      "regular": "https://images.unsplash.com/photo-1534353436294-0dbd4bdac845?crop=entropy&cs=tinysrgb&fit=max&fm=jpg&ixid=Mnw1MDM2MHwxfDF8YWxsfDF8fHx8fHwyfHwxNjI3NDAyMjMz&ixlib=rb-1.2.1&q=80&w=1080",
      "small": "https://images.unsplash.com/photo-1534353436294-0dbd4bdac845?crop=entropy&cs=tinysrgb&fit=max&fm=jpg&ixid=Mnw1MDM2MHwxfDF8YWxsfDF8fHx8fHwyfHwxNjI3NDAyMjMz&ixlib=rb-1.2.1&q=80&w=400",
      "thumb": "https://images.unsplash.com/photo-1534353436294-0dbd4bdac845?crop=entropy&cs=tinysrgb&fit=max&fm=jpg&ixid=Mnw1MDM2MHwxfDF8YWxsfDF8fHx8fHwyfHwxNjI3NDAyMjMz&ixlib=rb-1.2.1&q=80&w=200"
    },
    "links": {
      "self": "https://api.unsplash.com/photos/A5E-ym6WyGM",
      "html": "https://unsplash.com/photos/A5E-ym6WyGM",
      "download": "https://unsplash.com/photos/A5E-ym6WyGM/download",
      "download_location": "https://api.unsplash.com/photos/A5E-ym6WyGM/download?ixid=Mnw1MDM2MHwxfDF8YWxsfDF8fHx8fHwyfHwxNjI3NDAyMjMz"
    },
    "categories": [],
    "likes": 1309,
    "liked_by_user": false,
    "current_user_collections": [],
    "sponsorship": {
      "impression_urls": [
        "https://secure.insightexpressai.com/adServer/adServerESI.aspx?script=false&bannerID=8967595&rnd=[timestamp]&redir=https://secure.insightexpressai.com/adserver/1pixel.gif",
        "https://ad.doubleclick.net/ddm/trackimpi/N1224323.3286893UNSPLASH/B25600467.307237436;dc_trk_aid=499798874;dc_trk_cid=152966934;ord=[timestamp];dc_lat=;dc_rdid=;tag_for_child_directed_treatment=;tfua=;ltd=?",
        "https://tag.researchnow.com/t/beacon?pr=285833&adn=1&ca=25600467&si=6303199&pl=307237436&cr=152966934&did=176&ord=[timestamp]&gdpr=${GDPR}&gdpr_consent=${GDPR_CONSENT_110}&us_privacy=${US_PRIVACY}"
      ],
      "tagline": "For Growing Businesses",
      "tagline_url": "https://ad.doubleclick.net/ddm/trackclk/N1224323.3286893UNSPLASH/B25600467.307237436;dc_trk_aid=499798874;dc_trk_cid=152966934;dc_lat=;dc_rdid=;tag_for_child_directed_treatment=;tfua=;ltd=",
      "sponsor": {
        "id": "D-bxv1Imc-o",
        "updated_at": "2021-07-27T06:35:06-04:00",
        "username": "mailchimp",
        "name": "Mailchimp",
        "first_name": "Mailchimp",
        "last_name": null,
        "twitter_username": "Mailchimp",
        "portfolio_url": "https://mailchimp.com/",
        "bio": "The all-in-one Marketing Platform built for growing businesses.",
        "location": null,
        "links": {
          "self": "https://api.unsplash.com/users/mailchimp",
          "html": "https://unsplash.com/@mailchimp",
          "photos": "https://api.unsplash.com/users/mailchimp/photos",
          "likes": "https://api.unsplash.com/users/mailchimp/likes",
          "portfolio": "https://api.unsplash.com/users/mailchimp/portfolio",
          "following": "https://api.unsplash.com/users/mailchimp/following",
          "followers": "https://api.unsplash.com/users/mailchimp/followers"
        },
        "profile_image": {
          "small": "https://images.unsplash.com/profile-1609545740442-928866556c38image?ixlib=rb-1.2.1&q=80&fm=jpg&crop=faces&cs=tinysrgb&fit=crop&h=32&w=32",
          "medium": "https://images.unsplash.com/profile-1609545740442-928866556c38image?ixlib=rb-1.2.1&q=80&fm=jpg&crop=faces&cs=tinysrgb&fit=crop&h=64&w=64",
          "large": "https://images.unsplash.com/profile-1609545740442-928866556c38image?ixlib=rb-1.2.1&q=80&fm=jpg&crop=faces&cs=tinysrgb&fit=crop&h=128&w=128"
        },
        "instagram_username": "mailchimp",
        "total_collections": 0,
        "total_likes": 19,
        "total_photos": 0,
        "accepted_tos": false,
        "for_hire": false,
        "social": {
          "instagram_username": "mailchimp",
          "portfolio_url": "https://mailchimp.com/",
          "twitter_username": "Mailchimp",
          "paypal_email": null
        }
      }
    },
    "user": {
      "id": "yyTnjxfxgLw",
      "updated_at": "2021-07-27T12:08:46-04:00",
      "username": "camylla93",
      "name": "Camylla Battani",
      "first_name": "Camylla",
      "last_name": "Battani",
      "twitter_username": null,
      "portfolio_url": "http://westwavephoto.com/",
      "bio": "If you can't tell, I love dogs. Photographing them brings me so much joy! I also take photos of other things too. I hope you find something you like in my collection!",
      "location": "Georgia",
      "links": {
        "self": "https://api.unsplash.com/users/camylla93",
        "html": "https://unsplash.com/@camylla93",
        "photos": "https://api.unsplash.com/users/camylla93/photos",
        "likes": "https://api.unsplash.com/users/camylla93/likes",
        "portfolio": "https://api.unsplash.com/users/camylla93/portfolio",
        "following": "https://api.unsplash.com/users/camylla93/following",
        "followers": "https://api.unsplash.com/users/camylla93/followers"
      },
      "profile_image": {
        "small": "https://images.unsplash.com/profile-1534348121140-71ba5518c01d?ixlib=rb-1.2.1&q=80&fm=jpg&crop=faces&cs=tinysrgb&fit=crop&h=32&w=32",
        "medium": "https://images.unsplash.com/profile-1534348121140-71ba5518c01d?ixlib=rb-1.2.1&q=80&fm=jpg&crop=faces&cs=tinysrgb&fit=crop&h=64&w=64",
        "large": "https://images.unsplash.com/profile-1534348121140-71ba5518c01d?ixlib=rb-1.2.1&q=80&fm=jpg&crop=faces&cs=tinysrgb&fit=crop&h=128&w=128"
      },
      "instagram_username": "mrsbattani",
      "total_collections": 0,
      "total_likes": 0,
      "total_photos": 41,
      "accepted_tos": true,
      "for_hire": true,
      "social": {
        "instagram_username": "mrsbattani",
        "portfolio_url": "http://westwavephoto.com/",
        "twitter_username": null,
        "paypal_email": null
      }
    }
  },
  {
    "id": "J3U6pMN9hz0",
    "created_at": "2021-07-26T21:46:26-04:00",
    "updated_at": "2021-07-27T12:09:02-04:00",
    "promoted_at": "2021-07-27T12:09:02-04:00",
    "width": 5304,
    "height": 6630,
    "color": "#595959",
    "blur_hash": "LMECg^E34TjX?aXAIAs.4oad%MbJ",
    "description": null,
    "alt_description": "clear drinking glass on table",
    "urls": {
      "raw": "https://images.unsplash.com/photo-1627350363697-62d4be756d38?ixid=Mnw1MDM2MHwwfDF8YWxsfDJ8fHx8fHwyfHwxNjI3NDAyMjMz&ixlib=rb-1.2.1",
      "full": "https://images.unsplash.com/photo-1627350363697-62d4be756d38?crop=entropy&cs=srgb&fm=jpg&ixid=Mnw1MDM2MHwwfDF8YWxsfDJ8fHx8fHwyfHwxNjI3NDAyMjMz&ixlib=rb-1.2.1&q=85",
      "regular": "https://images.unsplash.com/photo-1627350363697-62d4be756d38?crop=entropy&cs=tinysrgb&fit=max&fm=jpg&ixid=Mnw1MDM2MHwwfDF8YWxsfDJ8fHx8fHwyfHwxNjI3NDAyMjMz&ixlib=rb-1.2.1&q=80&w=1080",
      "small": "https://images.unsplash.com/photo-1627350363697-62d4be756d38?crop=entropy&cs=tinysrgb&fit=max&fm=jpg&ixid=Mnw1MDM2MHwwfDF8YWxsfDJ8fHx8fHwyfHwxNjI3NDAyMjMz&ixlib=rb-1.2.1&q=80&w=400",
      "thumb": "https://images.unsplash.com/photo-1627350363697-62d4be756d38?crop=entropy&cs=tinysrgb&fit=max&fm=jpg&ixid=Mnw1MDM2MHwwfDF8YWxsfDJ8fHx8fHwyfHwxNjI3NDAyMjMz&ixlib=rb-1.2.1&q=80&w=200"
    },
    "links": {
      "self": "https://api.unsplash.com/photos/J3U6pMN9hz0",
      "html": "https://unsplash.com/photos/J3U6pMN9hz0",
      "download": "https://unsplash.com/photos/J3U6pMN9hz0/download",
      "download_location": "https://api.unsplash.com/photos/J3U6pMN9hz0/download?ixid=Mnw1MDM2MHwwfDF8YWxsfDJ8fHx8fHwyfHwxNjI3NDAyMjMz"
    },
    "categories": [],
    "likes": 0,
    "liked_by_user": false,
    "current_user_collections": [],
    "sponsorship": null,
    "user": {
      "id": "HcNYl_aCEsU",
      "updated_at": "2021-07-27T12:09:02-04:00",
      "username": "isthatbrock",
      "name": "Brock Wegner",
      "first_name": "Brock",
      "last_name": "Wegner",
      "twitter_username": "IsThatBrock",
      "portfolio_url": "http://brockwegner.com",
      "bio": "Hello! Welcome to my profile, I hope you enjoy my checking out my work. Donations are very much appreciated! 🖤",
      "location": "Sioux Falls, SD 🌲",
      "links": {
        "self": "https://api.unsplash.com/users/isthatbrock",
        "html": "https://unsplash.com/@isthatbrock",
        "photos": "https://api.unsplash.com/users/isthatbrock/photos",
        "likes": "https://api.unsplash.com/users/isthatbrock/likes",
        "portfolio": "https://api.unsplash.com/users/isthatbrock/portfolio",
        "following": "https://api.unsplash.com/users/isthatbrock/following",
        "followers": "https://api.unsplash.com/users/isthatbrock/followers"
      },
      "profile_image": {
        "small": "https://images.unsplash.com/profile-1610470233577-32a3cb94e6b8image?ixlib=rb-1.2.1&q=80&fm=jpg&crop=faces&cs=tinysrgb&fit=crop&h=32&w=32",
        "medium": "https://images.unsplash.com/profile-1610470233577-32a3cb94e6b8image?ixlib=rb-1.2.1&q=80&fm=jpg&crop=faces&cs=tinysrgb&fit=crop&h=64&w=64",
        "large": "https://images.unsplash.com/profile-1610470233577-32a3cb94e6b8image?ixlib=rb-1.2.1&q=80&fm=jpg&crop=faces&cs=tinysrgb&fit=crop&h=128&w=128"
      },
      "instagram_username": "IsThatBrock",
      "total_collections": 0,
      "total_likes": 0,
      "total_photos": 250,
      "accepted_tos": true,
      "for_hire": true,
      "social": {
        "instagram_username": "IsThatBrock",
        "portfolio_url": "http://brockwegner.com",
        "twitter_username": "IsThatBrock",
        "paypal_email": null
      }
    }
  },
  {
    "id": "1wfIDTGfYZ4",
    "created_at": "2021-07-27T05:50:54-04:00",
    "updated_at": "2021-07-27T11:15:03-04:00",
    "promoted_at": "2021-07-27T11:15:03-04:00",
    "width": 4016,
    "height": 6016,
    "color": "#f3f3f3",
    "blur_hash": "LwLgRwx[NGV[_4s;t6axx^RjoLof",
    "description": null,
    "alt_description": "woman in yellow tank top holding her hair",
    "urls": {
      "raw": "https://images.unsplash.com/photo-1627379431672-54a7423054fa?ixid=Mnw1MDM2MHwwfDF8YWxsfDN8fHx8fHwyfHwxNjI3NDAyMjMz&ixlib=rb-1.2.1",
      "full": "https://images.unsplash.com/photo-1627379431672-54a7423054fa?crop=entropy&cs=srgb&fm=jpg&ixid=Mnw1MDM2MHwwfDF8YWxsfDN8fHx8fHwyfHwxNjI3NDAyMjMz&ixlib=rb-1.2.1&q=85",
      "regular": "https://images.unsplash.com/photo-1627379431672-54a7423054fa?crop=entropy&cs=tinysrgb&fit=max&fm=jpg&ixid=Mnw1MDM2MHwwfDF8YWxsfDN8fHx8fHwyfHwxNjI3NDAyMjMz&ixlib=rb-1.2.1&q=80&w=1080",
      "small": "https://images.unsplash.com/photo-1627379431672-54a7423054fa?crop=entropy&cs=tinysrgb&fit=max&fm=jpg&ixid=Mnw1MDM2MHwwfDF8YWxsfDN8fHx8fHwyfHwxNjI3NDAyMjMz&ixlib=rb-1.2.1&q=80&w=400",
      "thumb": "https://images.unsplash.com/photo-1627379431672-54a7423054fa?crop=entropy&cs=tinysrgb&fit=max&fm=jpg&ixid=Mnw1MDM2MHwwfDF8YWxsfDN8fHx8fHwyfHwxNjI3NDAyMjMz&ixlib=rb-1.2.1&q=80&w=200"
    },
    "links": {
      "self": "https://api.unsplash.com/photos/1wfIDTGfYZ4",
      "html": "https://unsplash.com/photos/1wfIDTGfYZ4",
      "download": "https://unsplash.com/photos/1wfIDTGfYZ4/download",
      "download_location": "https://api.unsplash.com/photos/1wfIDTGfYZ4/download?ixid=Mnw1MDM2MHwwfDF8YWxsfDN8fHx8fHwyfHwxNjI3NDAyMjMz"
    },
    "categories": [],
    "likes": 9,
    "liked_by_user": false,
    "current_user_collections": [],
    "sponsorship": null,
    "user": {
      "id": "-CgRCtIYEv4",
      "updated_at": "2021-07-27T11:58:53-04:00",
      "username": "kate_gliz",
      "name": "Kate Hliznitsova",
      "first_name": "Kate",
      "last_name": "Hliznitsova",
      "twitter_username": null,
      "portfolio_url": "https://www.instagram.com/kate_gliz/",
      "bio": "my mailing address k.gliz0406@gmail.com\r\nmy Instagram @kate_gliz",
      "location": "Ukraine",
      "links": {
        "self": "https://api.unsplash.com/users/kate_gliz",
        "html": "https://unsplash.com/@kate_gliz",
        "photos": "https://api.unsplash.com/users/kate_gliz/photos",
        "likes": "https://api.unsplash.com/users/kate_gliz/likes",
        "portfolio": "https://api.unsplash.com/users/kate_gliz/portfolio",
        "following": "https://api.unsplash.com/users/kate_gliz/following",
        "followers": "https://api.unsplash.com/users/kate_gliz/followers"
      },
      "profile_image": {
        "small": "https://images.unsplash.com/profile-fb-1571138729-2172cad624ef.jpg?ixlib=rb-1.2.1&q=80&fm=jpg&crop=faces&cs=tinysrgb&fit=crop&h=32&w=32",
        "medium": "https://images.unsplash.com/profile-fb-1571138729-2172cad624ef.jpg?ixlib=rb-1.2.1&q=80&fm=jpg&crop=faces&cs=tinysrgb&fit=crop&h=64&w=64",
        "large": "https://images.unsplash.com/profile-fb-1571138729-2172cad624ef.jpg?ixlib=rb-1.2.1&q=80&fm=jpg&crop=faces&cs=tinysrgb&fit=crop&h=128&w=128"
      },
      "instagram_username": "kate_gliz",
      "total_collections": 0,
      "total_likes": 65,
      "total_photos": 1051,
      "accepted_tos": true,
      "for_hire": true,
      "social": {
        "instagram_username": "kate_gliz",
        "portfolio_url": "https://www.instagram.com/kate_gliz/",
        "twitter_username": null,
        "paypal_email": null
      }
    }
  },
  {
    "id": "vmGgLdV0jFY",
    "created_at": "2021-07-26T16:37:12-04:00",
    "updated_at": "2021-07-27T11:12:02-04:00",
    "promoted_at": "2021-07-27T11:12:02-04:00",
    "width": 3399,
    "height": 4537,
    "color": "#597373",
    "blur_hash": "LDCQb;?vIUof0eD%oMs;x]%3%MRj",
    "description": "The shore of the Atlantic Ocean at Cabo de Roca",
    "alt_description": "brown rock formation on body of water during daytime",
    "urls": {
      "raw": "https://images.unsplash.com/photo-1627331451593-0553c3d2d6f9?ixid=Mnw1MDM2MHwwfDF8YWxsfDR8fHx8fHwyfHwxNjI3NDAyMjMz&ixlib=rb-1.2.1",
      "full": "https://images.unsplash.com/photo-1627331451593-0553c3d2d6f9?crop=entropy&cs=srgb&fm=jpg&ixid=Mnw1MDM2MHwwfDF8YWxsfDR8fHx8fHwyfHwxNjI3NDAyMjMz&ixlib=rb-1.2.1&q=85",
      "regular": "https://images.unsplash.com/photo-1627331451593-0553c3d2d6f9?crop=entropy&cs=tinysrgb&fit=max&fm=jpg&ixid=Mnw1MDM2MHwwfDF8YWxsfDR8fHx8fHwyfHwxNjI3NDAyMjMz&ixlib=rb-1.2.1&q=80&w=1080",
      "small": "https://images.unsplash.com/photo-1627331451593-0553c3d2d6f9?crop=entropy&cs=tinysrgb&fit=max&fm=jpg&ixid=Mnw1MDM2MHwwfDF8YWxsfDR8fHx8fHwyfHwxNjI3NDAyMjMz&ixlib=rb-1.2.1&q=80&w=400",
      "thumb": "https://images.unsplash.com/photo-1627331451593-0553c3d2d6f9?crop=entropy&cs=tinysrgb&fit=max&fm=jpg&ixid=Mnw1MDM2MHwwfDF8YWxsfDR8fHx8fHwyfHwxNjI3NDAyMjMz&ixlib=rb-1.2.1&q=80&w=200"
    },
    "links": {
      "self": "https://api.unsplash.com/photos/vmGgLdV0jFY",
      "html": "https://unsplash.com/photos/vmGgLdV0jFY",
      "download": "https://unsplash.com/photos/vmGgLdV0jFY/download",
      "download_location": "https://api.unsplash.com/photos/vmGgLdV0jFY/download?ixid=Mnw1MDM2MHwwfDF8YWxsfDR8fHx8fHwyfHwxNjI3NDAyMjMz"
    },
    "categories": [],
    "likes": 15,
    "liked_by_user": false,
    "current_user_collections": [],
    "sponsorship": null,
    "user": {
      "id": "-1DIPw88li0",
      "updated_at": "2021-07-27T11:58:54-04:00",
      "username": "marta_alexandra",
      "name": "Alexandra Marta",
      "first_name": "Alexandra",
      "last_name": "Marta",
      "twitter_username": null,
      "portfolio_url": null,
      "bio": null,
      "location": "Iasi, Romania",
      "links": {
        "self": "https://api.unsplash.com/users/marta_alexandra",
        "html": "https://unsplash.com/@marta_alexandra",
        "photos": "https://api.unsplash.com/users/marta_alexandra/photos",
        "likes": "https://api.unsplash.com/users/marta_alexandra/likes",
        "portfolio": "https://api.unsplash.com/users/marta_alexandra/portfolio",
        "following": "https://api.unsplash.com/users/marta_alexandra/following",
        "followers": "https://api.unsplash.com/users/marta_alexandra/followers"
      },
      "profile_image": {
        "small": "https://images.unsplash.com/profile-1625666307265-160ee5460a3fimage?ixlib=rb-1.2.1&q=80&fm=jpg&crop=faces&cs=tinysrgb&fit=crop&h=32&w=32",
        "medium": "https://images.unsplash.com/profile-1625666307265-160ee5460a3fimage?ixlib=rb-1.2.1&q=80&fm=jpg&crop=faces&cs=tinysrgb&fit=crop&h=64&w=64",
        "large": "https://images.unsplash.com/profile-1625666307265-160ee5460a3fimage?ixlib=rb-1.2.1&q=80&fm=jpg&crop=faces&cs=tinysrgb&fit=crop&h=128&w=128"
      },
      "instagram_username": "alecsandra.marta",
      "total_collections": 1,
      "total_likes": 22,
      "total_photos": 29,
      "accepted_tos": true,
      "for_hire": false,
      "social": {
        "instagram_username": "alecsandra.marta",
        "portfolio_url": null,
        "twitter_username": null,
        "paypal_email": null
      }
    }
  },
  {
    "id": "skuQyEEqQUc",
    "created_at": "2021-07-27T00:37:58-04:00",
    "updated_at": "2021-07-27T11:09:04-04:00",
    "promoted_at": "2021-07-27T11:09:04-04:00",
    "width": 8000,
    "height": 5329,
    "color": "#f3f3f3",
    "blur_hash": "L{J8R@%Mayof~qxtWBj[ozRjayj[",
    "description": "Place to talk",
    "alt_description": "black car on green grass field during daytime",
    "urls": {
      "raw": "https://images.unsplash.com/photo-1627360647258-9a7f71c56568?ixid=Mnw1MDM2MHwwfDF8YWxsfDV8fHx8fHwyfHwxNjI3NDAyMjMz&ixlib=rb-1.2.1",
      "full": "https://images.unsplash.com/photo-1627360647258-9a7f71c56568?crop=entropy&cs=srgb&fm=jpg&ixid=Mnw1MDM2MHwwfDF8YWxsfDV8fHx8fHwyfHwxNjI3NDAyMjMz&ixlib=rb-1.2.1&q=85",
      "regular": "https://images.unsplash.com/photo-1627360647258-9a7f71c56568?crop=entropy&cs=tinysrgb&fit=max&fm=jpg&ixid=Mnw1MDM2MHwwfDF8YWxsfDV8fHx8fHwyfHwxNjI3NDAyMjMz&ixlib=rb-1.2.1&q=80&w=1080",
      "small": "https://images.unsplash.com/photo-1627360647258-9a7f71c56568?crop=entropy&cs=tinysrgb&fit=max&fm=jpg&ixid=Mnw1MDM2MHwwfDF8YWxsfDV8fHx8fHwyfHwxNjI3NDAyMjMz&ixlib=rb-1.2.1&q=80&w=400",
      "thumb": "https://images.unsplash.com/photo-1627360647258-9a7f71c56568?crop=entropy&cs=tinysrgb&fit=max&fm=jpg&ixid=Mnw1MDM2MHwwfDF8YWxsfDV8fHx8fHwyfHwxNjI3NDAyMjMz&ixlib=rb-1.2.1&q=80&w=200"
    },
    "links": {
      "self": "https://api.unsplash.com/photos/skuQyEEqQUc",
      "html": "https://unsplash.com/photos/skuQyEEqQUc",
      "download": "https://unsplash.com/photos/skuQyEEqQUc/download",
      "download_location": "https://api.unsplash.com/photos/skuQyEEqQUc/download?ixid=Mnw1MDM2MHwwfDF8YWxsfDV8fHx8fHwyfHwxNjI3NDAyMjMz"
    },
    "categories": [],
    "likes": 1,
    "liked_by_user": false,
    "current_user_collections": [],
    "sponsorship": null,
    "user": {
      "id": "GpmXEETxuis",
      "updated_at": "2021-07-27T11:13:33-04:00",
      "username": "rldgs",
      "name": "Riley",
      "first_name": "Riley",
      "last_name": null,
      "twitter_username": "daggs_riley",
      "portfolio_url": "http://rldgs.work",
      "bio": null,
      "location": "San Francisco",
      "links": {
        "self": "https://api.unsplash.com/users/rldgs",
        "html": "https://unsplash.com/@rldgs",
        "photos": "https://api.unsplash.com/users/rldgs/photos",
        "likes": "https://api.unsplash.com/users/rldgs/likes",
        "portfolio": "https://api.unsplash.com/users/rldgs/portfolio",
        "following": "https://api.unsplash.com/users/rldgs/following",
        "followers": "https://api.unsplash.com/users/rldgs/followers"
      },
      "profile_image": {
        "small": "https://images.unsplash.com/profile-1592609622758-3726fe6a1fcfimage?ixlib=rb-1.2.1&q=80&fm=jpg&crop=faces&cs=tinysrgb&fit=crop&h=32&w=32",
        "medium": "https://images.unsplash.com/profile-1592609622758-3726fe6a1fcfimage?ixlib=rb-1.2.1&q=80&fm=jpg&crop=faces&cs=tinysrgb&fit=crop&h=64&w=64",
        "large": "https://images.unsplash.com/profile-1592609622758-3726fe6a1fcfimage?ixlib=rb-1.2.1&q=80&fm=jpg&crop=faces&cs=tinysrgb&fit=crop&h=128&w=128"
      },
      "instagram_username": "rldgs",
      "total_collections": 6,
      "total_likes": 116,
      "total_photos": 151,
      "accepted_tos": true,
      "for_hire": true,
      "social": {
        "instagram_username": "rldgs",
        "portfolio_url": "http://rldgs.work",
        "twitter_username": "daggs_riley",
        "paypal_email": null
      }
    }
  },
  {
    "id": "FtmjYbEcqTo",
    "created_at": "2021-05-31T17:12:12-04:00",
    "updated_at": "2021-07-26T15:54:13-04:00",
    "promoted_at": null,
    "width": 6336,
    "height": 8448,
    "color": "#f3f3f3",
    "blur_hash": "LkL}W;$e%gxu~ptRt8%NROD%R*xu",
    "description": null,
    "alt_description": "woman in black leather jacket holding coca cola bottle",
    "urls": {
      "raw": "https://images.unsplash.com/photo-1622495506467-86a4840011c0?ixid=Mnw1MDM2MHwxfDF8YWxsfDZ8fHx8fHwyfHwxNjI3NDAyMjMz&ixlib=rb-1.2.1",
      "full": "https://images.unsplash.com/photo-1622495506467-86a4840011c0?crop=entropy&cs=srgb&fm=jpg&ixid=Mnw1MDM2MHwxfDF8YWxsfDZ8fHx8fHwyfHwxNjI3NDAyMjMz&ixlib=rb-1.2.1&q=85",
      "regular": "https://images.unsplash.com/photo-1622495506467-86a4840011c0?crop=entropy&cs=tinysrgb&fit=max&fm=jpg&ixid=Mnw1MDM2MHwxfDF8YWxsfDZ8fHx8fHwyfHwxNjI3NDAyMjMz&ixlib=rb-1.2.1&q=80&w=1080",
      "small": "https://images.unsplash.com/photo-1622495506467-86a4840011c0?crop=entropy&cs=tinysrgb&fit=max&fm=jpg&ixid=Mnw1MDM2MHwxfDF8YWxsfDZ8fHx8fHwyfHwxNjI3NDAyMjMz&ixlib=rb-1.2.1&q=80&w=400",
      "thumb": "https://images.unsplash.com/photo-1622495506467-86a4840011c0?crop=entropy&cs=tinysrgb&fit=max&fm=jpg&ixid=Mnw1MDM2MHwxfDF8YWxsfDZ8fHx8fHwyfHwxNjI3NDAyMjMz&ixlib=rb-1.2.1&q=80&w=200"
    },
    "links": {
      "self": "https://api.unsplash.com/photos/FtmjYbEcqTo",
      "html": "https://unsplash.com/photos/FtmjYbEcqTo",
      "download": "https://unsplash.com/photos/FtmjYbEcqTo/download",
      "download_location": "https://api.unsplash.com/photos/FtmjYbEcqTo/download?ixid=Mnw1MDM2MHwxfDF8YWxsfDZ8fHx8fHwyfHwxNjI3NDAyMjMz"
    },
    "categories": [],
    "likes": 148,
    "liked_by_user": false,
    "current_user_collections": [],
    "sponsorship": {
      "impression_urls": [],
      "tagline": "Flavored by Culture",
      "tagline_url": "https://jarritos.com/",
      "sponsor": {
        "id": "GV2cL0IFBvQ",
        "updated_at": "2021-07-27T11:53:45-04:00",
        "username": "jarritos",
        "name": "Jarritos Mexican Soda",
        "first_name": "Jarritos",
        "last_name": "Mexican Soda",
        "twitter_username": "jarritos",
        "portfolio_url": "https://www.jarritos.com",
        "bio": "Natural Flavored Sodas made with real sugar that are available in 13 Super Good flavors!",
        "location": null,
        "links": {
          "self": "https://api.unsplash.com/users/jarritos",
          "html": "https://unsplash.com/@jarritos",
          "photos": "https://api.unsplash.com/users/jarritos/photos",
          "likes": "https://api.unsplash.com/users/jarritos/likes",
          "portfolio": "https://api.unsplash.com/users/jarritos/portfolio",
          "following": "https://api.unsplash.com/users/jarritos/following",
          "followers": "https://api.unsplash.com/users/jarritos/followers"
        },
        "profile_image": {
          "small": "https://images.unsplash.com/profile-1622240285757-b65539d1fbe2image?ixlib=rb-1.2.1&q=80&fm=jpg&crop=faces&cs=tinysrgb&fit=crop&h=32&w=32",
          "medium": "https://images.unsplash.com/profile-1622240285757-b65539d1fbe2image?ixlib=rb-1.2.1&q=80&fm=jpg&crop=faces&cs=tinysrgb&fit=crop&h=64&w=64",
          "large": "https://images.unsplash.com/profile-1622240285757-b65539d1fbe2image?ixlib=rb-1.2.1&q=80&fm=jpg&crop=faces&cs=tinysrgb&fit=crop&h=128&w=128"
        },
        "instagram_username": "jarritos",
        "total_collections": 0,
        "total_likes": 8,
        "total_photos": 402,
        "accepted_tos": true,
        "for_hire": false,
        "social": {
          "instagram_username": "jarritos",
          "portfolio_url": "https://www.jarritos.com",
          "twitter_username": "jarritos",
          "paypal_email": null
        }
      }
    },
    "user": {
      "id": "GV2cL0IFBvQ",
      "updated_at": "2021-07-27T11:53:45-04:00",
      "username": "jarritos",
      "name": "Jarritos Mexican Soda",
      "first_name": "Jarritos",
      "last_name": "Mexican Soda",
      "twitter_username": "jarritos",
      "portfolio_url": "https://www.jarritos.com",
      "bio": "Natural Flavored Sodas made with real sugar that are available in 13 Super Good flavors!",
      "location": null,
      "links": {
        "self": "https://api.unsplash.com/users/jarritos",
        "html": "https://unsplash.com/@jarritos",
        "photos": "https://api.unsplash.com/users/jarritos/photos",
        "likes": "https://api.unsplash.com/users/jarritos/likes",
        "portfolio": "https://api.unsplash.com/users/jarritos/portfolio",
        "following": "https://api.unsplash.com/users/jarritos/following",
        "followers": "https://api.unsplash.com/users/jarritos/followers"
      },
      "profile_image": {
        "small": "https://images.unsplash.com/profile-1622240285757-b65539d1fbe2image?ixlib=rb-1.2.1&q=80&fm=jpg&crop=faces&cs=tinysrgb&fit=crop&h=32&w=32",
        "medium": "https://images.unsplash.com/profile-1622240285757-b65539d1fbe2image?ixlib=rb-1.2.1&q=80&fm=jpg&crop=faces&cs=tinysrgb&fit=crop&h=64&w=64",
        "large": "https://images.unsplash.com/profile-1622240285757-b65539d1fbe2image?ixlib=rb-1.2.1&q=80&fm=jpg&crop=faces&cs=tinysrgb&fit=crop&h=128&w=128"
      },
      "instagram_username": "jarritos",
      "total_collections": 0,
      "total_likes": 8,
      "total_photos": 402,
      "accepted_tos": true,
      "for_hire": false,
      "social": {
        "instagram_username": "jarritos",
        "portfolio_url": "https://www.jarritos.com",
        "twitter_username": "jarritos",
        "paypal_email": null
      }
    }
  },
  {
    "id": "872dAqsVdgE",
    "created_at": "2021-07-26T15:50:21-04:00",
    "updated_at": "2021-07-27T11:06:03-04:00",
    "promoted_at": "2021-07-27T11:06:03-04:00",
    "width": 6048,
    "height": 4024,
    "color": "#f3f3f3",
    "blur_hash": "LsHoUZ~qWBjYt8xuoMV@xvbIRjay",
    "description": null,
    "alt_description": "woman taking photo of herself",
    "urls": {
      "raw": "https://images.unsplash.com/photo-1627328859142-33887a722184?ixid=Mnw1MDM2MHwwfDF8YWxsfDd8fHx8fHwyfHwxNjI3NDAyMjMz&ixlib=rb-1.2.1",
      "full": "https://images.unsplash.com/photo-1627328859142-33887a722184?crop=entropy&cs=srgb&fm=jpg&ixid=Mnw1MDM2MHwwfDF8YWxsfDd8fHx8fHwyfHwxNjI3NDAyMjMz&ixlib=rb-1.2.1&q=85",
      "regular": "https://images.unsplash.com/photo-1627328859142-33887a722184?crop=entropy&cs=tinysrgb&fit=max&fm=jpg&ixid=Mnw1MDM2MHwwfDF8YWxsfDd8fHx8fHwyfHwxNjI3NDAyMjMz&ixlib=rb-1.2.1&q=80&w=1080",
      "small": "https://images.unsplash.com/photo-1627328859142-33887a722184?crop=entropy&cs=tinysrgb&fit=max&fm=jpg&ixid=Mnw1MDM2MHwwfDF8YWxsfDd8fHx8fHwyfHwxNjI3NDAyMjMz&ixlib=rb-1.2.1&q=80&w=400",
      "thumb": "https://images.unsplash.com/photo-1627328859142-33887a722184?crop=entropy&cs=tinysrgb&fit=max&fm=jpg&ixid=Mnw1MDM2MHwwfDF8YWxsfDd8fHx8fHwyfHwxNjI3NDAyMjMz&ixlib=rb-1.2.1&q=80&w=200"
    },
    "links": {
      "self": "https://api.unsplash.com/photos/872dAqsVdgE",
      "html": "https://unsplash.com/photos/872dAqsVdgE",
      "download": "https://unsplash.com/photos/872dAqsVdgE/download",
      "download_location": "https://api.unsplash.com/photos/872dAqsVdgE/download?ixid=Mnw1MDM2MHwwfDF8YWxsfDd8fHx8fHwyfHwxNjI3NDAyMjMz"
    },
    "categories": [],
    "likes": 1,
    "liked_by_user": false,
    "current_user_collections": [],
    "sponsorship": null,
    "user": {
      "id": "9MZm624m6m8",
      "updated_at": "2021-07-27T11:08:37-04:00",
      "username": "lucky_photography",
      "name": "lucas clarysse",
      "first_name": "lucas",
      "last_name": "clarysse",
      "twitter_username": null,
      "portfolio_url": null,
      "bio": null,
      "location": "belgium",
      "links": {
        "self": "https://api.unsplash.com/users/lucky_photography",
        "html": "https://unsplash.com/@lucky_photography",
        "photos": "https://api.unsplash.com/users/lucky_photography/photos",
        "likes": "https://api.unsplash.com/users/lucky_photography/likes",
        "portfolio": "https://api.unsplash.com/users/lucky_photography/portfolio",
        "following": "https://api.unsplash.com/users/lucky_photography/following",
        "followers": "https://api.unsplash.com/users/lucky_photography/followers"
      },
      "profile_image": {
        "small": "https://images.unsplash.com/profile-1554127058305-911c9d72d0c4?ixlib=rb-1.2.1&q=80&fm=jpg&crop=faces&cs=tinysrgb&fit=crop&h=32&w=32",
        "medium": "https://images.unsplash.com/profile-1554127058305-911c9d72d0c4?ixlib=rb-1.2.1&q=80&fm=jpg&crop=faces&cs=tinysrgb&fit=crop&h=64&w=64",
        "large": "https://images.unsplash.com/profile-1554127058305-911c9d72d0c4?ixlib=rb-1.2.1&q=80&fm=jpg&crop=faces&cs=tinysrgb&fit=crop&h=128&w=128"
      },
      "instagram_username": "lucas_clarysse",
      "total_collections": 0,
      "total_likes": 0,
      "total_photos": 38,
      "accepted_tos": true,
      "for_hire": false,
      "social": {
        "instagram_username": "lucas_clarysse",
        "portfolio_url": null,
        "twitter_username": null,
        "paypal_email": null
      }
    }
  },
  {
    "id": "2--AIdVgAlw",
    "created_at": "2021-07-26T18:59:10-04:00",
    "updated_at": "2021-07-27T11:03:02-04:00",
    "promoted_at": "2021-07-27T11:03:02-04:00",
    "width": 4024,
    "height": 6048,
    "color": "#262626",
    "blur_hash": "LcFZHKxuMxt7_NofRjs:a$R+j[jY",
    "description": "Calgary New Central Library (NCL)",
    "alt_description": "black wooden framed blue padded armchair",
    "urls": {
      "raw": "https://images.unsplash.com/photo-1627340066231-bbc5ed33b862?ixid=Mnw1MDM2MHwwfDF8YWxsfDh8fHx8fHwyfHwxNjI3NDAyMjMz&ixlib=rb-1.2.1",
      "full": "https://images.unsplash.com/photo-1627340066231-bbc5ed33b862?crop=entropy&cs=srgb&fm=jpg&ixid=Mnw1MDM2MHwwfDF8YWxsfDh8fHx8fHwyfHwxNjI3NDAyMjMz&ixlib=rb-1.2.1&q=85",
      "regular": "https://images.unsplash.com/photo-1627340066231-bbc5ed33b862?crop=entropy&cs=tinysrgb&fit=max&fm=jpg&ixid=Mnw1MDM2MHwwfDF8YWxsfDh8fHx8fHwyfHwxNjI3NDAyMjMz&ixlib=rb-1.2.1&q=80&w=1080",
      "small": "https://images.unsplash.com/photo-1627340066231-bbc5ed33b862?crop=entropy&cs=tinysrgb&fit=max&fm=jpg&ixid=Mnw1MDM2MHwwfDF8YWxsfDh8fHx8fHwyfHwxNjI3NDAyMjMz&ixlib=rb-1.2.1&q=80&w=400",
      "thumb": "https://images.unsplash.com/photo-1627340066231-bbc5ed33b862?crop=entropy&cs=tinysrgb&fit=max&fm=jpg&ixid=Mnw1MDM2MHwwfDF8YWxsfDh8fHx8fHwyfHwxNjI3NDAyMjMz&ixlib=rb-1.2.1&q=80&w=200"
    },
    "links": {
      "self": "https://api.unsplash.com/photos/2--AIdVgAlw",
      "html": "https://unsplash.com/photos/2--AIdVgAlw",
      "download": "https://unsplash.com/photos/2--AIdVgAlw/download",
      "download_location": "https://api.unsplash.com/photos/2--AIdVgAlw/download?ixid=Mnw1MDM2MHwwfDF8YWxsfDh8fHx8fHwyfHwxNjI3NDAyMjMz"
    },
    "categories": [],
    "likes": 5,
    "liked_by_user": false,
    "current_user_collections": [],
    "sponsorship": null,
    "user": {
      "id": "lHGLHMCyqs8",
      "updated_at": "2021-07-27T12:05:30-04:00",
      "username": "ryunosuke_kikuno",
      "name": "Ryunosuke Kikuno",
      "first_name": "Ryunosuke",
      "last_name": "Kikuno",
      "twitter_username": "ryunosuke_kkn",
      "portfolio_url": "https://www.ryunosukekikuno.com/",
      "bio": "Tokyo, Japan ⇨ Calgary, Canada\r\nI hope you like my photos. And would be grateful if could support me via PayPal. It would give a huge motivation for my creative.",
      "location": "Calgary, Canada",
      "links": {
        "self": "https://api.unsplash.com/users/ryunosuke_kikuno",
        "html": "https://unsplash.com/@ryunosuke_kikuno",
        "photos": "https://api.unsplash.com/users/ryunosuke_kikuno/photos",
        "likes": "https://api.unsplash.com/users/ryunosuke_kikuno/likes",
        "portfolio": "https://api.unsplash.com/users/ryunosuke_kikuno/portfolio",
        "following": "https://api.unsplash.com/users/ryunosuke_kikuno/following",
        "followers": "https://api.unsplash.com/users/ryunosuke_kikuno/followers"
      },
      "profile_image": {
        "small": "https://images.unsplash.com/profile-1621479987012-73ba1c118855image?ixlib=rb-1.2.1&q=80&fm=jpg&crop=faces&cs=tinysrgb&fit=crop&h=32&w=32",
        "medium": "https://images.unsplash.com/profile-1621479987012-73ba1c118855image?ixlib=rb-1.2.1&q=80&fm=jpg&crop=faces&cs=tinysrgb&fit=crop&h=64&w=64",
        "large": "https://images.unsplash.com/profile-1621479987012-73ba1c118855image?ixlib=rb-1.2.1&q=80&fm=jpg&crop=faces&cs=tinysrgb&fit=crop&h=128&w=128"
      },
      "instagram_username": "ryunosuke_kikuno",
      "total_collections": 6,
      "total_likes": 812,
      "total_photos": 1114,
      "accepted_tos": true,
      "for_hire": true,
      "social": {
        "instagram_username": "ryunosuke_kikuno",
        "portfolio_url": "https://www.ryunosukekikuno.com/",
        "twitter_username": "ryunosuke_kkn",
        "paypal_email": null
      }
    }
  },
  {
    "id": "bLobpucHIvw",
    "created_at": "2021-07-27T04:09:47-04:00",
    "updated_at": "2021-07-27T11:00:04-04:00",
    "promoted_at": "2021-07-27T11:00:04-04:00",
    "width": 5846,
    "height": 3890,
    "color": "#260c0c",
    "blur_hash": "LeH9jMbG10xF=voKR+WVafs-xFR+",
    "description": null,
    "alt_description": "golden gate bridge san francisco california",
    "urls": {
      "raw": "https://images.unsplash.com/photo-1627373317910-4f753fee6244?ixid=Mnw1MDM2MHwwfDF8YWxsfDl8fHx8fHwyfHwxNjI3NDAyMjMz&ixlib=rb-1.2.1",
      "full": "https://images.unsplash.com/photo-1627373317910-4f753fee6244?crop=entropy&cs=srgb&fm=jpg&ixid=Mnw1MDM2MHwwfDF8YWxsfDl8fHx8fHwyfHwxNjI3NDAyMjMz&ixlib=rb-1.2.1&q=85",
      "regular": "https://images.unsplash.com/photo-1627373317910-4f753fee6244?crop=entropy&cs=tinysrgb&fit=max&fm=jpg&ixid=Mnw1MDM2MHwwfDF8YWxsfDl8fHx8fHwyfHwxNjI3NDAyMjMz&ixlib=rb-1.2.1&q=80&w=1080",
      "small": "https://images.unsplash.com/photo-1627373317910-4f753fee6244?crop=entropy&cs=tinysrgb&fit=max&fm=jpg&ixid=Mnw1MDM2MHwwfDF8YWxsfDl8fHx8fHwyfHwxNjI3NDAyMjMz&ixlib=rb-1.2.1&q=80&w=400",
      "thumb": "https://images.unsplash.com/photo-1627373317910-4f753fee6244?crop=entropy&cs=tinysrgb&fit=max&fm=jpg&ixid=Mnw1MDM2MHwwfDF8YWxsfDl8fHx8fHwyfHwxNjI3NDAyMjMz&ixlib=rb-1.2.1&q=80&w=200"
    },
    "links": {
      "self": "https://api.unsplash.com/photos/bLobpucHIvw",
      "html": "https://unsplash.com/photos/bLobpucHIvw",
      "download": "https://unsplash.com/photos/bLobpucHIvw/download",
      "download_location": "https://api.unsplash.com/photos/bLobpucHIvw/download?ixid=Mnw1MDM2MHwwfDF8YWxsfDl8fHx8fHwyfHwxNjI3NDAyMjMz"
    },
    "categories": [],
    "likes": 6,
    "liked_by_user": false,
    "current_user_collections": [],
    "sponsorship": null,
    "user": {
      "id": "DbAkxxnIt5U",
      "updated_at": "2021-07-27T11:59:12-04:00",
      "username": "zetong",
      "name": "Zetong Li",
      "first_name": "Zetong",
      "last_name": "Li",
      "twitter_username": "Zetong_Li",
      "portfolio_url": "http://www.linkedin.com/in/zetong",
      "bio": "Originally from China, studied in Stanford, stayed in the Silicon Valley, now working on improving healthcare operations with Machine Learning and Software",
      "location": "Sunnyvale, California",
      "links": {
        "self": "https://api.unsplash.com/users/zetong",
        "html": "https://unsplash.com/@zetong",
        "photos": "https://api.unsplash.com/users/zetong/photos",
        "likes": "https://api.unsplash.com/users/zetong/likes",
        "portfolio": "https://api.unsplash.com/users/zetong/portfolio",
        "following": "https://api.unsplash.com/users/zetong/following",
        "followers": "https://api.unsplash.com/users/zetong/followers"
      },
      "profile_image": {
        "small": "https://images.unsplash.com/profile-fb-1546734508-d65fbb813662.jpg?ixlib=rb-1.2.1&q=80&fm=jpg&crop=faces&cs=tinysrgb&fit=crop&h=32&w=32",
        "medium": "https://images.unsplash.com/profile-fb-1546734508-d65fbb813662.jpg?ixlib=rb-1.2.1&q=80&fm=jpg&crop=faces&cs=tinysrgb&fit=crop&h=64&w=64",
        "large": "https://images.unsplash.com/profile-fb-1546734508-d65fbb813662.jpg?ixlib=rb-1.2.1&q=80&fm=jpg&crop=faces&cs=tinysrgb&fit=crop&h=128&w=128"
      },
      "instagram_username": null,
      "total_collections": 4,
      "total_likes": 22,
      "total_photos": 70,
      "accepted_tos": true,
      "for_hire": false,
      "social": {
        "instagram_username": null,
        "portfolio_url": "http://www.linkedin.com/in/zetong",
        "twitter_username": "Zetong_Li",
        "paypal_email": null
      }
    }
  },
  {
    "id": "4A1gGhpcy24",
    "created_at": "2021-07-27T03:49:02-04:00",
    "updated_at": "2021-07-27T11:14:02-04:00",
    "promoted_at": "2021-07-27T10:57:01-04:00",
    "width": 3738,
    "height": 5607,
    "color": "#0c2626",
    "blur_hash": "LXChW;NxRkkC|{NaSeWV+bR+X8WV",
    "description": null,
    "alt_description": "black and white laptop computer",
    "urls": {
      "raw": "https://images.unsplash.com/photo-1627372129933-9abc19b91f21?ixid=Mnw1MDM2MHwwfDF8YWxsfDEwfHx8fHx8Mnx8MTYyNzQwMjIzMw&ixlib=rb-1.2.1",
      "full": "https://images.unsplash.com/photo-1627372129933-9abc19b91f21?crop=entropy&cs=srgb&fm=jpg&ixid=Mnw1MDM2MHwwfDF8YWxsfDEwfHx8fHx8Mnx8MTYyNzQwMjIzMw&ixlib=rb-1.2.1&q=85",
      "regular": "https://images.unsplash.com/photo-1627372129933-9abc19b91f21?crop=entropy&cs=tinysrgb&fit=max&fm=jpg&ixid=Mnw1MDM2MHwwfDF8YWxsfDEwfHx8fHx8Mnx8MTYyNzQwMjIzMw&ixlib=rb-1.2.1&q=80&w=1080",
      "small": "https://images.unsplash.com/photo-1627372129933-9abc19b91f21?crop=entropy&cs=tinysrgb&fit=max&fm=jpg&ixid=Mnw1MDM2MHwwfDF8YWxsfDEwfHx8fHx8Mnx8MTYyNzQwMjIzMw&ixlib=rb-1.2.1&q=80&w=400",
      "thumb": "https://images.unsplash.com/photo-1627372129933-9abc19b91f21?crop=entropy&cs=tinysrgb&fit=max&fm=jpg&ixid=Mnw1MDM2MHwwfDF8YWxsfDEwfHx8fHx8Mnx8MTYyNzQwMjIzMw&ixlib=rb-1.2.1&q=80&w=200"
    },
    "links": {
      "self": "https://api.unsplash.com/photos/4A1gGhpcy24",
      "html": "https://unsplash.com/photos/4A1gGhpcy24",
      "download": "https://unsplash.com/photos/4A1gGhpcy24/download",
      "download_location": "https://api.unsplash.com/photos/4A1gGhpcy24/download?ixid=Mnw1MDM2MHwwfDF8YWxsfDEwfHx8fHx8Mnx8MTYyNzQwMjIzMw"
    },
    "categories": [],
    "likes": 7,
    "liked_by_user": false,
    "current_user_collections": [],
    "sponsorship": null,
    "user": {
      "id": "3SCC0WcF-wA",
      "updated_at": "2021-07-27T12:08:35-04:00",
      "username": "refargotohp",
      "name": "refargotohp",
      "first_name": "refargotohp",
      "last_name": null,
      "twitter_username": null,
      "portfolio_url": "http://instagram.com/refargotohp",
      "bio": "Hello! My name is Pavel, and I am a photographer. I enjoy the photo in any of its manifestations. Sequential shooting, street, studio, portraiture - it's all me. Waiting for you on my social networks - @refargotohp",
      "location": "Moscow. Russia. ",
      "links": {
        "self": "https://api.unsplash.com/users/refargotohp",
        "html": "https://unsplash.com/@refargotohp",
        "photos": "https://api.unsplash.com/users/refargotohp/photos",
        "likes": "https://api.unsplash.com/users/refargotohp/likes",
        "portfolio": "https://api.unsplash.com/users/refargotohp/portfolio",
        "following": "https://api.unsplash.com/users/refargotohp/following",
        "followers": "https://api.unsplash.com/users/refargotohp/followers"
      },
      "profile_image": {
        "small": "https://images.unsplash.com/profile-1606588707286-a06b90dc9908image?ixlib=rb-1.2.1&q=80&fm=jpg&crop=faces&cs=tinysrgb&fit=crop&h=32&w=32",
        "medium": "https://images.unsplash.com/profile-1606588707286-a06b90dc9908image?ixlib=rb-1.2.1&q=80&fm=jpg&crop=faces&cs=tinysrgb&fit=crop&h=64&w=64",
        "large": "https://images.unsplash.com/profile-1606588707286-a06b90dc9908image?ixlib=rb-1.2.1&q=80&fm=jpg&crop=faces&cs=tinysrgb&fit=crop&h=128&w=128"
      },
      "instagram_username": "refargotohp",
      "total_collections": 1,
      "total_likes": 49,
      "total_photos": 64,
      "accepted_tos": true,
      "for_hire": true,
      "social": {
        "instagram_username": "refargotohp",
        "portfolio_url": "http://instagram.com/refargotohp",
        "twitter_username": null,
        "paypal_email": null
      }
    }
  }
]
